Que documentos debo llevar para tramitar mi credencial para votar?,IFE_tramiteCRD
Que documentos debo llevar para tramitar mi Credencial de elector?,IFE_tramiteCRD
Que documentos debo llevar para tramitar mi IFE?,IFE_tramiteCRD
Que documentos debo llevar para tramitar mi INE?,IFE_tramiteCRD
Que documentos debo presentar para tramitar mi credencial para votar?,IFE_tramiteCRD
Que documentos debo presentar para tramitar mi Credencial de elector?,IFE_tramiteCRD
Que documentos debo presentar para tramitar mi IFE?,IFE_tramiteCRD
Que documentos debo presentar para tramitar mi INE?,IFE_tramiteCRD
Que papeles debo llevar para tramitar mi credencial para votar?,IFE_tramiteCRD
Que papeles debo llevar para tramitar mi Credencial de elector?,IFE_tramiteCRD
Que papeles debo llevar para tramitar mi IFE?,IFE_tramiteCRD
Que papeles debo llevar para tramitar mi INE?,IFE_tramiteCRD
Que papeles debo presentar para tramitar mi credencial para votar?,IFE_tramiteCRD
Que papeles debo presentar para tramitar mi Credencial de elector?,IFE_tramiteCRD
Que papeles debo presentar para tramitar mi IFE?,IFE_tramiteCRD
Que papeles debo presentar para tramitar mi INE?,IFE_tramiteCRD
Que documentos debo llevar para sacar mi credencial para votar?,IFE_tramiteCRD
Que documentos debo llevar para sacar mi Credencial de elector?,IFE_tramiteCRD
Que documentos debo llevar para sacar mi IFE?,IFE_tramiteCRD
Que documentos debo llevar para sacar mi INE?,IFE_tramiteCRD
Que documentos debo presentar para sacar mi credencial para votar?,IFE_tramiteCRD
Que documentos debo presentar para sacar mi Credencial de elector?,IFE_tramiteCRD
Que documentos debo presentar para sacar mi IFE?,IFE_tramiteCRD
Que documentos debo presentar para sacar mi INE?,IFE_tramiteCRD
Que papeles debo llevar para sacar mi credencial para votar?,IFE_tramiteCRD
Que papeles debo llevar para sacar mi Credencial de elector?,IFE_tramiteCRD
Que papeles debo llevar para sacar mi IFE?,IFE_tramiteCRD
Que papeles debo llevar para sacar mi INE?,IFE_tramiteCRD
Que papeles debo presentar para sacar mi credencial para votar?,IFE_tramiteCRD
Que papeles debo presentar para sacar mi Credencial de elector?,IFE_tramiteCRD
Que documentos debo llevar para tramitar agua para mi casa?,CESPT_tramiteTAP
Que documentos debo llevar para tramitar  servicio de agua?,CESPT_tramiteTAP
Que documentos debo llevar para tramitar  toma de agua?,CESPT_tramiteTAP
Que documentos debo llevar para tramitar  agua en mi casa?,CESPT_tramiteTAP
Que documentos debo presentar para tramitar agua para mi casa?,CESPT_tramiteTAP
Que documentos debo presentar para tramitar  servicio de agua?,CESPT_tramiteTAP
Que documentos debo presentar para tramitar  toma de agua?,CESPT_tramiteTAP
Que documentos debo presentar para tramitar  agua en mi casa?,CESPT_tramiteTAP
Que papeles debo llevar para tramitar agua para mi casa?,CESPT_tramiteTAP
Que papeles debo llevar para tramitar  servicio de agua?,CESPT_tramiteTAP
Que papeles debo llevar para tramitar  toma de agua?,CESPT_tramiteTAP
Que papeles debo llevar para tramitar  agua en mi casa?,CESPT_tramiteTAP
Que papeles debo presentar para tramitar agua para mi casa?,CESPT_tramiteTAP
Que papeles debo presentar para tramitar  servicio de agua?,CESPT_tramiteTAP
Que papeles debo presentar para tramitar  toma de agua?,CESPT_tramiteTAP
Que papeles debo presentar para tramitar  agua en mi casa?,CESPT_tramiteTAP
Que documentos debo llevar para sacar agua para mi casa?,CESPT_tramiteTAP
Que documentos debo llevar para sacar  servicio de agua?,CESPT_tramiteTAP
Que documentos debo llevar para sacar  toma de agua?,CESPT_tramiteTAP
Que documentos debo llevar para sacar  agua en mi casa?,CESPT_tramiteTAP
Que documentos debo presentar para sacar agua para mi casa?,CESPT_tramiteTAP
Que documentos debo presentar para sacar  servicio de agua?,CESPT_tramiteTAP
Que documentos debo presentar para sacar  toma de agua?,CESPT_tramiteTAP
Que documentos debo presentar para sacar  agua en mi casa?,CESPT_tramiteTAP
Que papeles debo llevar para sacar agua para mi casa?,CESPT_tramiteTAP
Que papeles debo llevar para sacar  servicio de agua?,CESPT_tramiteTAP
Que papeles debo llevar para sacar  toma de agua?,CESPT_tramiteTAP
Que papeles debo llevar para sacar  agua en mi casa?,CESPT_tramiteTAP
Que papeles debo presentar para sacar agua para mi casa?,CESPT_tramiteTAP
Que papeles debo presentar para sacar  servicio de agua?,CESPT_tramiteTAP
Que documentos debo llevar para tramitar luz para mi casa?,CFE_tramiteMED
Que documentos debo llevar para tramitar  servicio de luz?,CFE_tramiteMED
Que documentos debo llevar para tramitar  medidor de luz?,CFE_tramiteMED
Que documentos debo llevar para tramitar  luz en mi casa?,CFE_tramiteMED
Que documentos debo presentar para tramitar luz para mi casa?,CFE_tramiteMED
Que documentos debo presentar para tramitar  servicio de luz?,CFE_tramiteMED
Que documentos debo presentar para tramitar  medidor de luz?,CFE_tramiteMED
Que documentos debo presentar para tramitar  luz en mi casa?,CFE_tramiteMED
Que papeles debo llevar para tramitar luz para mi casa?,CFE_tramiteMED
Que papeles debo llevar para tramitar  servicio de luz?,CFE_tramiteMED
Que papeles debo llevar para tramitar  medidor de luz?,CFE_tramiteMED
Que papeles debo llevar para tramitar  luz en mi casa?,CFE_tramiteMED
Que papeles debo presentar para tramitar luz para mi casa?,CFE_tramiteMED
Que papeles debo presentar para tramitar  servicio de luz?,CFE_tramiteMED
Que papeles debo presentar para tramitar  medidor de luz?,CFE_tramiteMED
Que papeles debo presentar para tramitar  luz en mi casa?,CFE_tramiteMED
Que documentos debo llevar para sacar luz para mi casa?,CFE_tramiteMED
Que documentos debo llevar para sacar  servicio de luz?,CFE_tramiteMED
Que documentos debo llevar para sacar  medidor de luz?,CFE_tramiteMED
Que documentos debo llevar para sacar  luz en mi casa?,CFE_tramiteMED
Que documentos debo presentar para sacar luz para mi casa?,CFE_tramiteMED
Que documentos debo presentar para sacar  servicio de luz?,CFE_tramiteMED
Que documentos debo presentar para sacar  medidor de luz?,CFE_tramiteMED
Que documentos debo presentar para sacar  luz en mi casa?,CFE_tramiteMED
Que papeles debo llevar para sacar luz para mi casa?,CFE_tramiteMED
Que papeles debo llevar para sacar  servicio de luz?,CFE_tramiteMED
Que papeles debo llevar para sacar  medidor de luz?,CFE_tramiteMED
Que papeles debo llevar para sacar  luz en mi casa?,CFE_tramiteMED
Que papeles debo presentar para sacar luz para mi casa?,CFE_tramiteMED
Que papeles debo presentar para sacar  servicio de luz?,CFE_tramiteMED
Que documentos debo llevar para tramitar mi seguro social?,IMSS_tramiteSST
Que documentos debo llevar para tramitar  el seguro social?,IMSS_tramiteSST
Que documentos debo llevar para tramitar  seguro social para trabajar?,IMSS_tramiteSST
Que documentos debo llevar para tramitar  seguro social ?,IMSS_tramiteSST
Que documentos debo presentar para tramitar mi seguro social?,IMSS_tramiteSST
Que documentos debo presentar para tramitar  el seguro social?,IMSS_tramiteSST
Que documentos debo presentar para tramitar  seguro social para trabajar?,IMSS_tramiteSST
Que documentos debo presentar para tramitar  seguro social ?,IMSS_tramiteSST
Que papeles debo llevar para tramitar mi seguro social?,IMSS_tramiteSST
Que papeles debo llevar para tramitar  el seguro social?,IMSS_tramiteSST
Que papeles debo llevar para tramitar  seguro social para trabajar?,IMSS_tramiteSST
Que papeles debo llevar para tramitar  seguro social ?,IMSS_tramiteSST
Que papeles debo presentar para tramitar mi seguro social?,IMSS_tramiteSST
Que papeles debo presentar para tramitar  el seguro social?,IMSS_tramiteSST
Que papeles debo presentar para tramitar  seguro social para trabajar?,IMSS_tramiteSST
Que papeles debo presentar para tramitar  seguro social ?,IMSS_tramiteSST
Que documentos debo llevar para sacar mi seguro social?,IMSS_tramiteSST
Que documentos debo llevar para sacar  el seguro social?,IMSS_tramiteSST
Que documentos debo llevar para sacar  seguro social para trabajar?,IMSS_tramiteSST
Que documentos debo llevar para sacar  seguro social ?,IMSS_tramiteSST
Que documentos debo presentar para sacar mi seguro social?,IMSS_tramiteSST
Que documentos debo presentar para sacar  el seguro social?,IMSS_tramiteSST
Que documentos debo presentar para sacar  seguro social para trabajar?,IMSS_tramiteSST
Que documentos debo presentar para sacar  seguro social ?,IMSS_tramiteSST
Que papeles debo llevar para sacar mi seguro social?,IMSS_tramiteSST
Que papeles debo llevar para sacar  el seguro social?,IMSS_tramiteSST
Que papeles debo llevar para sacar  seguro social para trabajar?,IMSS_tramiteSST
Que papeles debo llevar para sacar  seguro social ?,IMSS_tramiteSST
Que papeles debo presentar para sacar mi seguro social?,IMSS_tramiteSST
Que papeles debo presentar para sacar  el seguro social?,IMSS_tramiteSST
Que documentos debo llevar para tramitar mi visa?,INM_tramiteVISA
Que documentos debo llevar para tramitar  la visa?,INM_tramiteVISA
Que documentos debo llevar para tramitar  la visa para crusar a usa?,INM_tramiteVISA
Que documentos debo llevar para tramitar  visa para crusar a usa?,INM_tramiteVISA
Que documentos debo presentar para tramitar mi visa?,INM_tramiteVISA
Que documentos debo presentar para tramitar  la visa?,INM_tramiteVISA
Que documentos debo presentar para tramitar  la visa para crusar a usa?,INM_tramiteVISA
Que documentos debo presentar para tramitar  visa para crusar a usa?,INM_tramiteVISA
Que papeles debo llevar para tramitar mi visa?,INM_tramiteVISA
Que papeles debo llevar para tramitar  la visa?,INM_tramiteVISA
Que papeles debo llevar para tramitar  la visa para crusar a usa?,INM_tramiteVISA
Que papeles debo llevar para tramitar  visa para crusar a usa?,INM_tramiteVISA
Que papeles debo presentar para tramitar mi visa?,INM_tramiteVISA
Que papeles debo presentar para tramitar  la visa?,INM_tramiteVISA
Que papeles debo presentar para tramitar  la visa para crusar a usa?,INM_tramiteVISA
Que papeles debo presentar para tramitar  visa para crusar a usa?,INM_tramiteVISA
Que documentos debo llevar para sacar mi visa?,INM_tramiteVISA
Que documentos debo llevar para sacar  la visa?,INM_tramiteVISA
Que documentos debo llevar para sacar  la visa para crusar a usa?,INM_tramiteVISA
Que documentos debo llevar para sacar  visa para crusar a usa?,INM_tramiteVISA
Que documentos debo presentar para sacar mi visa?,INM_tramiteVISA
Que documentos debo presentar para sacar  la visa?,INM_tramiteVISA
Que documentos debo presentar para sacar  la visa para crusar a usa?,INM_tramiteVISA
Que documentos debo presentar para sacar  visa para crusar a usa?,INM_tramiteVISA
Que papeles debo llevar para sacar mi visa?,INM_tramiteVISA
Que papeles debo llevar para sacar  la visa?,INM_tramiteVISA
Que papeles debo llevar para sacar  la visa para crusar a usa?,INM_tramiteVISA
Que papeles debo llevar para sacar  visa para crusar a usa?,INM_tramiteVISA
Que papeles debo presentar para sacar mi visa?,INM_tramiteVISA
Que papeles debo presentar para sacar  la visa?,INM_tramiteVISA
Que documentos debo llevar para tramitar mi terreno en gobierno?,REGPRO_regTRRN
Que documentos debo llevar para tramitar  la compra de un terreno?,REGPRO_regTRRN
Que documentos debo llevar para tramitar  compra venta de terreno?,REGPRO_regTRRN
Que documentos debo llevar para tramitar  terreno?,REGPRO_regTRRN
Que documentos debo presentar para tramitar mi terreno en gobierno?,REGPRO_regTRRN
Que documentos debo presentar para tramitar  la compra de un terreno?,REGPRO_regTRRN
Que documentos debo presentar para tramitar  compra venta de terreno?,REGPRO_regTRRN
Que documentos debo presentar para tramitar  terreno?,REGPRO_regTRRN
Que papeles debo llevar para tramitar mi terreno en gobierno?,REGPRO_regTRRN
Que papeles debo llevar para tramitar  la compra de un terreno?,REGPRO_regTRRN
Que papeles debo llevar para tramitar  compra venta de terreno?,REGPRO_regTRRN
Que papeles debo llevar para tramitar  terreno?,REGPRO_regTRRN
Que papeles debo presentar para tramitar mi terreno en gobierno?,REGPRO_regTRRN
Que papeles debo presentar para tramitar  la compra de un terreno?,REGPRO_regTRRN
Que papeles debo presentar para tramitar  compra venta de terreno?,REGPRO_regTRRN
Que papeles debo presentar para tramitar  terreno?,REGPRO_regTRRN
Que documentos debo llevar para sacar mi terreno en gobierno?,REGPRO_regTRRN
Que documentos debo llevar para sacar  la compra de un terreno?,REGPRO_regTRRN
Que documentos debo llevar para sacar  compra venta de terreno?,REGPRO_regTRRN
Que documentos debo llevar para sacar  terreno?,REGPRO_regTRRN
Que documentos debo presentar para sacar mi terreno en gobierno?,REGPRO_regTRRN
Que documentos debo presentar para sacar  la compra de un terreno?,REGPRO_regTRRN
Que documentos debo presentar para sacar  compra venta de terreno?,REGPRO_regTRRN
Que documentos debo presentar para sacar  terreno?,REGPRO_regTRRN
Que papeles debo llevar para sacar mi terreno en gobierno?,REGPRO_regTRRN
Que papeles debo llevar para sacar  la compra de un terreno?,REGPRO_regTRRN
Que papeles debo llevar para sacar  compra venta de terreno?,REGPRO_regTRRN
Que papeles debo llevar para sacar  terreno?,REGPRO_regTRRN
Que papeles debo presentar para sacar mi terreno en gobierno?,REGPRO_regTRRN
Que papeles debo presentar para sacar  la compra de un terreno?,REGPRO_regTRRN
Que documentos debo llevar para tramitar mi licencia de conducir?,BIAL_tramiteLIC
Que documentos debo llevar para tramitar  la licencia de conducir?,BIAL_tramiteLIC
Que documentos debo llevar para tramitar  licencia de manejo?,BIAL_tramiteLIC
Que documentos debo llevar para tramitar  licencia de manejo?,BIAL_tramiteLIC
Que documentos debo presentar para tramitar mi licencia de conducir?,BIAL_tramiteLIC
Que documentos debo presentar para tramitar  la licencia de conducir?,BIAL_tramiteLIC
Que documentos debo presentar para tramitar  licencia de manejo?,BIAL_tramiteLIC
Que documentos debo presentar para tramitar  licencia de manejo?,BIAL_tramiteLIC
Que papeles debo llevar para tramitar mi licencia de conducir?,BIAL_tramiteLIC
Que papeles debo llevar para tramitar  la licencia de conducir?,BIAL_tramiteLIC
Que papeles debo llevar para tramitar  licencia de manejo?,BIAL_tramiteLIC
Que papeles debo llevar para tramitar  licencia de manejo?,BIAL_tramiteLIC
Que papeles debo presentar para tramitar mi licencia de conducir?,BIAL_tramiteLIC
Que papeles debo presentar para tramitar  la licencia de conducir?,BIAL_tramiteLIC
Que papeles debo presentar para tramitar  licencia de manejo?,BIAL_tramiteLIC
Que papeles debo presentar para tramitar  licencia de manejo?,BIAL_tramiteLIC
Que documentos debo llevar para sacar mi licencia de conducir?,BIAL_tramiteLIC
Que documentos debo llevar para sacar  la licencia de conducir?,BIAL_tramiteLIC
Que documentos debo llevar para sacar  licencia de manejo?,BIAL_tramiteLIC
Que documentos debo llevar para sacar  licencia de manejo?,BIAL_tramiteLIC
Que documentos debo presentar para sacar mi licencia de conducir?,BIAL_tramiteLIC
Que documentos debo presentar para sacar  la licencia de conducir?,BIAL_tramiteLIC
Que documentos debo presentar para sacar  licencia de manejo?,BIAL_tramiteLIC
Que documentos debo presentar para sacar  licencia de manejo?,BIAL_tramiteLIC
Que papeles debo llevar para sacar mi licencia de conducir?,BIAL_tramiteLIC
Que papeles debo llevar para sacar  la licencia de conducir?,BIAL_tramiteLIC
Que papeles debo llevar para sacar  licencia de manejo?,BIAL_tramiteLIC
Que papeles debo llevar para sacar  licencia de manejo?,BIAL_tramiteLIC
Que papeles debo presentar para sacar mi licencia de conducir?,BIAL_tramiteLIC
Que papeles debo presentar para sacar  la licencia de conducir?,BIAL_tramiteLIC
Que documentos debo llevar para tramitar carta de antecedentes no penales?,PGR_noPENAL
Que documentos debo llevar para tramitar  constancia de antecedentes no penales?,PGR_noPENAL
Que documentos debo llevar para tramitar  mi carta de antecedentes no penales?,PGR_noPENAL
Que documentos debo llevar para tramitar  antecedentes no penales?,PGR_noPENAL
Que documentos debo presentar para tramitar carta de antecedentes no penales?,PGR_noPENAL
Que documentos debo presentar para tramitar  constancia de antecedentes no penales?,PGR_noPENAL
Que documentos debo presentar para tramitar  mi carta de antecedentes no penales?,PGR_noPENAL
Que documentos debo presentar para tramitar  antecedentes no penales?,PGR_noPENAL
Que papeles debo llevar para tramitar carta de antecedentes no penales?,PGR_noPENAL
Que papeles debo llevar para tramitar  constancia de antecedentes no penales?,PGR_noPENAL
Que papeles debo llevar para tramitar  mi carta de antecedentes no penales?,PGR_noPENAL
Que papeles debo llevar para tramitar  antecedentes no penales?,PGR_noPENAL
Que papeles debo presentar para tramitar carta de antecedentes no penales?,PGR_noPENAL
Que papeles debo presentar para tramitar  constancia de antecedentes no penales?,PGR_noPENAL
Que papeles debo presentar para tramitar  mi carta de antecedentes no penales?,PGR_noPENAL
Que papeles debo presentar para tramitar  antecedentes no penales?,PGR_noPENAL
Que documentos debo llevar para sacar carta de antecedentes no penales?,PGR_noPENAL
Que documentos debo llevar para sacar  constancia de antecedentes no penales?,PGR_noPENAL
Que documentos debo llevar para sacar  mi carta de antecedentes no penales?,PGR_noPENAL
Que documentos debo llevar para sacar  antecedentes no penales?,PGR_noPENAL
Que documentos debo presentar para sacar carta de antecedentes no penales?,PGR_noPENAL
Que documentos debo presentar para sacar  constancia de antecedentes no penales?,PGR_noPENAL
Que documentos debo presentar para sacar  mi carta de antecedentes no penales?,PGR_noPENAL
Que documentos debo presentar para sacar  antecedentes no penales?,PGR_noPENAL
Que papeles debo llevar para sacar carta de antecedentes no penales?,PGR_noPENAL
Que papeles debo llevar para sacar  constancia de antecedentes no penales?,PGR_noPENAL
Que papeles debo llevar para sacar  mi carta de antecedentes no penales?,PGR_noPENAL
Que papeles debo llevar para sacar  antecedentes no penales?,PGR_noPENAL
Que papeles debo presentar para sacar carta de antecedentes no penales?,PGR_noPENAL
Que papeles debo presentar para sacar  constancia de antecedentes no penales?,PGR_noPENAL
Que documentos debo llevar para tramitar mi acta de nacimiento?,REGCVL_ACTNAC
Que documentos debo llevar para tramitar  la acta de nacimiento?,REGCVL_ACTNAC
Que documentos debo llevar para tramitar  una acta de nacimiento?,REGCVL_ACTNAC
Que documentos debo llevar para tramitar  acta de nacimiento?,REGCVL_ACTNAC
Que documentos debo presentar para tramitar mi acta de nacimiento?,REGCVL_ACTNAC
Que documentos debo presentar para tramitar  la acta de nacimiento?,REGCVL_ACTNAC
Que documentos debo presentar para tramitar  una acta de nacimiento?,REGCVL_ACTNAC
Que documentos debo presentar para tramitar  acta de nacimiento?,REGCVL_ACTNAC
Que papeles debo llevar para tramitar mi acta de nacimiento?,REGCVL_ACTNAC
Que papeles debo llevar para tramitar  la acta de nacimiento?,REGCVL_ACTNAC
Que papeles debo llevar para tramitar  una acta de nacimiento?,REGCVL_ACTNAC
Que papeles debo llevar para tramitar  acta de nacimiento?,REGCVL_ACTNAC
Que papeles debo presentar para tramitar mi acta de nacimiento?,REGCVL_ACTNAC
Que papeles debo presentar para tramitar  la acta de nacimiento?,REGCVL_ACTNAC
Que papeles debo presentar para tramitar  una acta de nacimiento?,REGCVL_ACTNAC
Que papeles debo presentar para tramitar  acta de nacimiento?,REGCVL_ACTNAC
Que documentos debo llevar para sacar mi acta de nacimiento?,REGCVL_ACTNAC
Que documentos debo llevar para sacar  la acta de nacimiento?,REGCVL_ACTNAC
Que documentos debo llevar para sacar  una acta de nacimiento?,REGCVL_ACTNAC
Que documentos debo llevar para sacar  acta de nacimiento?,REGCVL_ACTNAC
Que documentos debo presentar para sacar mi acta de nacimiento?,REGCVL_ACTNAC
Que documentos debo presentar para sacar  la acta de nacimiento?,REGCVL_ACTNAC
Que documentos debo presentar para sacar  una acta de nacimiento?,REGCVL_ACTNAC
Que documentos debo presentar para sacar  acta de nacimiento?,REGCVL_ACTNAC
Que papeles debo llevar para sacar mi acta de nacimiento?,REGCVL_ACTNAC
Que papeles debo llevar para sacar  la acta de nacimiento?,REGCVL_ACTNAC
Que papeles debo llevar para sacar  una acta de nacimiento?,REGCVL_ACTNAC
Que papeles debo llevar para sacar  acta de nacimiento?,REGCVL_ACTNAC
Que papeles debo presentar para sacar mi acta de nacimiento?,REGCVL_ACTNAC
Que papeles debo presentar para sacar  la acta de nacimiento?,REGCVL_ACTNAC
Que necesito para cruzar a estados unidos?,INM_NcstVISA
Que necesito para cruzar a USA?,INM_NcstVISA
Que ocupo para cruzar a estados unidos?,INM_NcstVISA
Que ocupo para cruzar a USA?,INM_NcstVISA
Que documento necesito para crusar a USA?,INM_NcstVISA
Que documento necesito para crusar a Estados Unidos?,INM_NcstVISA
Que papel necesito para crusar a USA?,INM_NcstVISA
Que papel necesito para cruzar a Estados unidos?,INM_NcstVISA
Que ocupo para ir a USA?,INM_NcstVISA
Que necesito para ir a USA?,INM_NcstVISA
que se necesita para ir a USA?,INM_NcstVISA
que se necesita para ir a estados unidos?,INM_NcstVISA
que se necesita para ir al otro lado?,INM_NcstVISA
que ocupo para is al otro lado?,INM_NcstVISA
Que necesito para ir al otro lado?,INM_NcstVISA
Como le hago para ir a estados unidos?,INM_NcstVISA
Donde puedo tramitar la visa?,INM_tramiteLOC
A donde puedo ir a solicitar la visa?,INM_tramiteLOC
donde puedo sacar la visa?,INM_tramiteLOC
en donde puedo solicitar la visa?,INM_tramiteLOC
en donde puedo tramitar la visa?,INM_tramiteLOC
la locacion para solicitar la visa?,INM_tramiteLOC
la locacion para tramitar la visa?,INM_tramiteLOC
que lugar es donde puedo tramitar la visa?,INM_tramiteLOC
que lugar es donde puedo solicitar la visa?,INM_tramiteLOC
donde puedo solicitar la visa?,INM_tramiteLOC
en que lugar puedo tramitar la visa?,INM_tramiteLOC
en que lugar puedo solicitar la visa?,INM_tramiteLOC
el lugar para solicitar la visa?,INM_tramiteLOC
el lugar para tramitar la visa?,INM_tramiteLOC
donde puedo solicitar mi visa?,INM_tramiteLOC
donde puedo tramitar mi visa?,INM_tramiteLOC
que lugar puedo tramitar mi visa?,INM_tramiteLOC
ok gracias.,THNK_BYE
muchas gracias.,THNK_BYE
perfecto gracias.,THNK_BYE
gracias por la informacion,THNK_BYE
adios,THNK_BYE
ya estamos pariente,THNK_BYE
bye,THNK_BYE
gracias,THNK_BYE
asta luego.,THNK_BYE
alrrato,THNK_BYE
ya estamos,THNK_BYE
alrra,THNK_BYE
muy bien,THNK_BYE
"seria todo, gracias.",THNK_BYE
buen dias.,THNK_BYE
nos vemos,THNK_BYE
asta pronto,THNK_BYE
seria todo.,THNK_BYE
chingon,THNK_BYE
chido,THNK_BYE
thankyou,THNK_BYE
